dump.vcd
$date
Sun Jan 14 04:55:21 2024
$end
$version
Riviera-PRO Version 2022.04.117.8517
$end
$timescale
1 ps
$end

$scope module uart_tx_tb $end
$var wire 1 ! pop $end
$var wire 1 " sreg_empty $end
$var wire 1 # tx $end
$var reg 1 $ clk $end
$var reg 1 % rst $end
$var reg 1 & baud_pulse $end
$var reg 1 ' pen $end
$var reg 1 ( thre $end
$var reg 1 ) stb $end
$var reg 1 * sticky_parity $end
$var reg 1 + eps $end
$var reg 1 , set_break $end
$var reg 8 - din [7:0] $end
$var reg 2 . wls [1:0] $end
$var integer 32 / count $end

$scope module tx_dut $end
$var wire 1 0 clk $end
$var wire 1 1 rst $end
$var wire 1 2 baud_pulse $end
$var wire 1 3 pen $end
$var wire 1 4 thre $end
$var wire 1 5 stb $end
$var wire 1 6 sticky_parity $end
$var wire 1 7 eps $end
$var wire 1 8 set_break $end
$var wire 8 9 din [7:0] $end
$var wire 2 : wls [1:0] $end
$var reg 1 ; pop $end
$var reg 1 < sreg_empty $end
$var reg 1 = tx $end
$var reg 2 > state $end
$var reg 8 ? shft_reg [7:0] $end
$var reg 1 @ tx_data $end
$var reg 1 A d_parity $end
$var reg 3 B bitcnt [2:0] $end
$var reg 5 C count [4:0] $end
$var reg 1 D parity_out $end
$upscope $end

$upscope $end

$enddefinitions $end
$dumpvars
0!
0"
1#
0$
1%
0&
1'
0(
1)
0*
1+
0,
b10011 -
b11 .
b101 /
00
11
02
13
04
15
06
17
08
b10011 9
b11 :
0;
0<
1=
b0 >
bx ?
1@
xA
b0 B
b1111 C
xD
$end
#5000
1$
10
#10000
0$
00
#15000
1$
10
#20000
0$
00
#25000
1$
10
#30000
0$
00
#35000
1$
10
#40000
0$
00
#45000
1$
10
0%
01
b100 /
#50000
0$
00
#55000
1$
10
b11 /
#60000
0$
00
#65000
1$
10
b10 /
#70000
0$
00
#75000
1$
10
b1 /
#80000
0$
00
#85000
1$
10
b0 /
#90000
0$
00
#95000
1$
10
b101 /
1&
12
#100000
0$
00
#105000
1$
10
b100 /
0&
b1110 C
02
#110000
0$
00
#115000
1$
10
b11 /
#120000
0$
00
#125000
1$
10
b10 /
#130000
0$
00
#135000
1$
10
b1 /
#140000
0$
00
#145000
1$
10
b0 /
#150000
0$
00
#155000
1$
10
b101 /
1&
12
#160000
0$
00
#165000
1$
10
b100 /
0&
b1101 C
02
#170000
0$
00
#175000
1$
10
b11 /
#180000
0$
00
#185000
1$
10
b10 /
#190000
0$
00
#195000
1$
10
b1 /
#200000
0$
00
#205000
1$
10
b0 /
#210000
0$
00
#215000
1$
10
b101 /
1&
12
#220000
0$
00
#225000
1$
10
b100 /
0&
b1100 C
02
#230000
0$
00
#235000
1$
10
b11 /
#240000
0$
00
#245000
1$
10
b10 /
#250000
0$
00
#255000
1$
10
b1 /
#260000
0$
00
#265000
1$
10
b0 /
#270000
0$
00
#275000
1$
10
b101 /
1&
12
#280000
0$
00
#285000
1$
10
b100 /
0&
b1011 C
02
#290000
0$
00
#295000
1$
10
b11 /
#300000
0$
00
#305000
1$
10
b10 /
#310000
0$
00
#315000
1$
10
b1 /
#320000
0$
00
#325000
1$
10
b0 /
#330000
0$
00
#335000
1$
10
b101 /
1&
12
#340000
0$
00
#345000
1$
10
b100 /
0&
b1010 C
02
#350000
0$
00
#355000
1$
10
b11 /
#360000
0$
00
#365000
1$
10
b10 /
#370000
0$
00
#375000
1$
10
b1 /
#380000
0$
00
#385000
1$
10
b0 /
#390000
0$
00
#395000
1$
10
b101 /
1&
12
#400000
0$
00
#405000
1$
10
b100 /
0&
b1001 C
02
#410000
0$
00
#415000
1$
10
b11 /
#420000
0$
00
#425000
1$
10
b10 /
#430000
0$
00
#435000
1$
10
b1 /
#440000
0$
00
#445000
1$
10
b0 /
#450000
0$
00
#455000
1$
10
b101 /
1&
12
#460000
0$
00
#465000
1$
10
b100 /
0&
b1000 C
02
#470000
0$
00
#475000
1$
10
b11 /
#480000
0$
00
#485000
1$
10
b10 /
#490000
0$
00
#495000
1$
10
b1 /
#500000
0$
00
#505000
1$
10
b0 /
#510000
0$
00
#515000
1$
10
b101 /
1&
12
#520000
0$
00
#525000
1$
10
b100 /
0&
b111 C
02
#530000
0$
00
#535000
1$
10
b11 /
#540000
0$
00
#545000
1$
10
b10 /
#550000
0$
00
#555000
1$
10
b1 /
#560000
0$
00
#565000
1$
10
b0 /
#570000
0$
00
#575000
1$
10
b101 /
1&
12
#580000
0$
00
#585000
1$
10
b100 /
0&
b110 C
02
#590000
0$
00
#595000
1$
10
b11 /
#600000
0$
00
#605000
1$
10
b10 /
#610000
0$
00
#615000
1$
10
b1 /
#620000
0$
00
#625000
1$
10
b0 /
#630000
0$
00
#635000
1$
10
b101 /
1&
12
#640000
0$
00
#645000
1$
10
b100 /
0&
b101 C
02
#650000
0$
00
#655000
1$
10
b11 /
#660000
0$
00
#665000
1$
10
b10 /
#670000
0$
00
#675000
1$
10
b1 /
#680000
0$
00
#685000
1$
10
b0 /
#690000
0$
00
#695000
1$
10
b101 /
1&
12
#700000
0$
00
#705000
1$
10
b100 /
0&
b100 C
02
#710000
0$
00
#715000
1$
10
b11 /
#720000
0$
00
#725000
1$
10
b10 /
#730000
0$
00
#735000
1$
10
b1 /
#740000
0$
00
#745000
1$
10
b0 /
#750000
0$
00
#755000
1$
10
b101 /
1&
12
#760000
0$
00
#765000
1$
10
b100 /
0&
b11 C
02
#770000
0$
00
#775000
1$
10
b11 /
#780000
0$
00
#785000
1$
10
b10 /
#790000
0$
00
#795000
1$
10
b1 /
#800000
0$
00
#805000
1$
10
b0 /
#810000
0$
00
#815000
1$
10
b101 /
1&
12
#820000
0$
00
#825000
1$
10
b100 /
0&
b10 C
02
#830000
0$
00
#835000
1$
10
b11 /
#840000
0$
00
#845000
1$
10
b10 /
#850000
0$
00
#855000
1$
10
b1 /
#860000
0$
00
#865000
1$
10
b0 /
#870000
0$
00
#875000
1$
10
b101 /
1&
12
#880000
0$
00
#885000
1$
10
b100 /
0&
b1 C
02
#890000
0$
00
#895000
1$
10
b11 /
#900000
0$
00
#905000
1$
10
b10 /
#910000
0$
00
#915000
1$
10
b1 /
#920000
0$
00
#925000
1$
10
b0 /
#930000
0$
00
#935000
1$
10
b101 /
1&
12
#940000
0$
00
#945000
1$
10
b100 /
0&
b0 C
02
#950000
0$
00
#955000
1$
10
b11 /
#960000
0$
00
#965000
1$
10
b10 /
#970000
0$
00
#975000
1$
10
b1 /
#980000
0$
00
#985000
1$
10
b0 /
#990000
0$
00
#995000
1$
10
b101 /
1&
12
#1000000
0$
00
#1005000
1$
10
b100 /
0&
b1111 C
b1 >
b111 B
1;
b10011 ?
0@
1!
02
#1010000
0$
00
#1015000
1$
10
b11 /
0=
0#
#1020000
0$
00
#1025000
1$
10
b10 /
#1030000
0$
00
#1035000
1$
10
b1 /
#1040000
0$
00
#1045000
1$
10
b0 /
#1050000
0$
00
#1055000
1$
10
b101 /
1&
12
#1060000
0$
00
#1065000
1$
10
b100 /
0&
1A
b1110 C
02
#1070000
0$
00
#1075000
1$
10
b11 /
#1080000
0$
00
#1085000
1$
10
b10 /
#1090000
0$
00
#1095000
1$
10
b1 /
#1100000
0$
00
#1105000
1$
10
b0 /
#1110000
0$
00
#1115000
1$
10
b101 /
1&
12
#1120000
0$
00
#1125000
1$
10
b100 /
0&
b1101 C
02
#1130000
0$
00
#1135000
1$
10
b11 /
#1140000
0$
00
#1145000
1$
10
b10 /
#1150000
0$
00
#1155000
1$
10
b1 /
#1160000
0$
00
#1165000
1$
10
b0 /
#1170000
0$
00
#1175000
1$
10
b101 /
1&
12
#1180000
0$
00
#1185000
1$
10
b100 /
0&
b1100 C
02
#1190000
0$
00
#1195000
1$
10
b11 /
#1200000
0$
00
#1205000
1$
10
b10 /
#1210000
0$
00
#1215000
1$
10
b1 /
#1220000
0$
00
#1225000
1$
10
b0 /
#1230000
0$
00
#1235000
1$
10
b101 /
1&
12
#1240000
0$
00
#1245000
1$
10
b100 /
0&
b1011 C
02
#1250000
0$
00
#1255000
1$
10
b11 /
#1260000
0$
00
#1265000
1$
10
b10 /
#1270000
0$
00
#1275000
1$
10
b1 /
#1280000
0$
00
#1285000
1$
10
b0 /
#1290000
0$
00
#1295000
1$
10
b101 /
1&
12
#1300000
0$
00
#1305000
1$
10
b100 /
0&
b1010 C
02
#1310000
0$
00
#1315000
1$
10
b11 /
#1320000
0$
00
#1325000
1$
10
b10 /
#1330000
0$
00
#1335000
1$
10
b1 /
#1340000
0$
00
#1345000
1$
10
b0 /
#1350000
0$
00
#1355000
1$
10
b101 /
1&
12
#1360000
0$
00
#1365000
1$
10
b100 /
0&
b1001 C
02
#1370000
0$
00
#1375000
1$
10
b11 /
#1380000
0$
00
#1385000
1$
10
b10 /
#1390000
0$
00
#1395000
1$
10
b1 /
#1400000
0$
00
#1405000
1$
10
b0 /
#1410000
0$
00
#1415000
1$
10
b101 /
1&
12
#1420000
0$
00
#1425000
1$
10
b100 /
0&
b1000 C
02
#1430000
0$
00
#1435000
1$
10
b11 /
#1440000
0$
00
#1445000
1$
10
b10 /
#1450000
0$
00
#1455000
1$
10
b1 /
#1460000
0$
00
#1465000
1$
10
b0 /
#1470000
0$
00
#1475000
1$
10
b101 /
1&
12
#1480000
0$
00
#1485000
1$
10
b100 /
0&
b111 C
02
#1490000
0$
00
#1495000
1$
10
b11 /
#1500000
0$
00
#1505000
1$
10
b10 /
#1510000
0$
00
#1515000
1$
10
b1 /
#1520000
0$
00
#1525000
1$
10
b0 /
#1530000
0$
00
#1535000
1$
10
b101 /
1&
12
#1540000
0$
00
#1545000
1$
10
b100 /
0&
b110 C
02
#1550000
0$
00
#1555000
1$
10
b11 /
#1560000
0$
00
#1565000
1$
10
b10 /
#1570000
0$
00
#1575000
1$
10
b1 /
#1580000
0$
00
#1585000
1$
10
b0 /
#1590000
0$
00
#1595000
1$
10
b101 /
1&
12
#1600000
0$
00
#1605000
1$
10
b100 /
0&
b101 C
02
#1610000
0$
00
#1615000
1$
10
b11 /
#1620000
0$
00
#1625000
1$
10
b10 /
#1630000
0$
00
#1635000
1$
10
b1 /
#1640000
0$
00
#1645000
1$
10
b0 /
#1650000
0$
00
#1655000
1$
10
b101 /
1&
12
#1660000
0$
00
#1665000
1$
10
b100 /
0&
b100 C
02
#1670000
0$
00
#1675000
1$
10
b11 /
#1680000
0$
00
#1685000
1$
10
b10 /
#1690000
0$
00
#1695000
1$
10
b1 /
#1700000
0$
00
#1705000
1$
10
b0 /
#1710000
0$
00
#1715000
1$
10
b101 /
1&
12
#1720000
0$
00
#1725000
1$
10
b100 /
0&
b11 C
02
#1730000
0$
00
#1735000
1$
10
b11 /
#1740000
0$
00
#1745000
1$
10
b10 /
#1750000
0$
00
#1755000
1$
10
b1 /
#1760000
0$
00
#1765000
1$
10
b0 /
#1770000
0$
00
#1775000
1$
10
b101 /
1&
12
#1780000
0$
00
#1785000
1$
10
b100 /
0&
b10 C
02
#1790000
0$
00
#1795000
1$
10
b11 /
#1800000
0$
00
#1805000
1$
10
b10 /
#1810000
0$
00
#1815000
1$
10
b1 /
#1820000
0$
00
#1825000
1$
10
b0 /
#1830000
0$
00
#1835000
1$
10
b101 /
1&
12
#1840000
0$
00
#1845000
1$
10
b100 /
0&
b1 C
02
#1850000
0$
00
#1855000
1$
10
b11 /
#1860000
0$
00
#1865000
1$
10
b10 /
#1870000
0$
00
#1875000
1$
10
b1 /
#1880000
0$
00
#1885000
1$
10
b0 /
#1890000
0$
00
#1895000
1$
10
b101 /
1&
12
#1900000
0$
00
#1905000
1$
10
b100 /
0&
b0 C
02
#1910000
0$
00
#1915000
1$
10
b11 /
#1920000
0$
00
#1925000
1$
10
b10 /
#1930000
0$
00
#1935000
1$
10
b1 /
#1940000
0$
00
#1945000
1$
10
b0 /
#1950000
0$
00
#1955000
1$
10
b101 /
1&
12
#1960000
0$
00
#1965000
1$
10
b100 /
0&
b1111 C
b10 >
1@
b1001 ?
0;
0!
02
#1970000
0$
00
#1975000
1$
10
b11 /
1=
1#
#1980000
0$
00
#1985000
1$
10
b10 /
#1990000
0$
00
#1995000
1$
10
b1 /
#2000000
0$
00
#2005000
1$
10
b0 /
#2010000
0$
00
#2015000
1$
10
b101 /
1&
12
#2020000
0$
00
#2025000
1$
10
b100 /
0&
1D
b1110 C
02
#2030000
0$
00
#2035000
1$
10
b11 /
#2040000
0$
00
#2045000
1$
10
b10 /
#2050000
0$
00
#2055000
1$
10
b1 /
#2060000
0$
00
#2065000
1$
10
b0 /
#2070000
0$
00
#2075000
1$
10
b101 /
1&
12
#2080000
0$
00
#2085000
1$
10
b100 /
0&
b1101 C
02
#2090000
0$
00
#2095000
1$
10
b11 /
#2100000
0$
00
#2105000
1$
10
b10 /
#2110000
0$
00
#2115000
1$
10
b1 /
#2120000
0$
00
#2125000
1$
10
b0 /
#2130000
0$
00
#2135000
1$
10
b101 /
1&
12
#2140000
0$
00
#2145000
1$
10
b100 /
0&
b1100 C
02
#2150000
0$
00
#2155000
1$
10
b11 /
#2160000
0$
00
#2165000
1$
10
b10 /
#2170000
0$
00
#2175000
1$
10
b1 /
#2180000
0$
00
#2185000
1$
10
b0 /
#2190000
0$
00
#2195000
1$
10
b101 /
1&
12
#2200000
0$
00
#2205000
1$
10
b100 /
0&
b1011 C
02
#2210000
0$
00
#2215000
1$
10
b11 /
#2220000
0$
00
#2225000
1$
10
b10 /
#2230000
0$
00
#2235000
1$
10
b1 /
#2240000
0$
00
#2245000
1$
10
b0 /
#2250000
0$
00
#2255000
1$
10
b101 /
1&
12
#2260000
0$
00
#2265000
1$
10
b100 /
0&
b1010 C
02
#2270000
0$
00
#2275000
1$
10
b11 /
#2280000
0$
00
#2285000
1$
10
b10 /
#2290000
0$
00
#2295000
1$
10
b1 /
#2300000
0$
00
#2305000
1$
10
b0 /
#2310000
0$
00
#2315000
1$
10
b101 /
1&
12
#2320000
0$
00
#2325000
1$
10
b100 /
0&
b1001 C
02
#2330000
0$
00
#2335000
1$
10
b11 /
#2340000
0$
00
#2345000
1$
10
b10 /
#2350000
0$
00
#2355000
1$
10
b1 /
#2360000
0$
00
#2365000
1$
10
b0 /
#2370000
0$
00
#2375000
1$
10
b101 /
1&
12
#2380000
0$
00
#2385000
1$
10
b100 /
0&
b1000 C
02
#2390000
0$
00
#2395000
1$
10
b11 /
#2400000
0$
00
#2405000
1$
10
b10 /
#2410000
0$
00
#2415000
1$
10
b1 /
#2420000
0$
00
#2425000
1$
10
b0 /
#2430000
0$
00
#2435000
1$
10
b101 /
1&
12
#2440000
0$
00
#2445000
1$
10
b100 /
0&
b111 C
02
#2450000
0$
00
#2455000
1$
10
b11 /
#2460000
0$
00
#2465000
1$
10
b10 /
#2470000
0$
00
#2475000
1$
10
b1 /
#2480000
0$
00
#2485000
1$
10
b0 /
#2490000
0$
00
#2495000
1$
10
b101 /
1&
12
#2500000
0$
00
#2505000
1$
10
b100 /
0&
b110 C
02
#2510000
0$
00
#2515000
1$
10
b11 /
#2520000
0$
00
#2525000
1$
10
b10 /
#2530000
0$
00
#2535000
1$
10
b1 /
#2540000
0$
00
#2545000
1$
10
b0 /
#2550000
0$
00
#2555000
1$
10
b101 /
1&
12
#2560000
0$
00
#2565000
1$
10
b100 /
0&
b101 C
02
#2570000
0$
00
#2575000
1$
10
b11 /
#2580000
0$
00
#2585000
1$
10
b10 /
#2590000
0$
00
#2595000
1$
10
b1 /
#2600000
0$
00
#2605000
1$
10
b0 /
#2610000
0$
00
#2615000
1$
10
b101 /
1&
12
#2620000
0$
00
#2625000
1$
10
b100 /
0&
b100 C
02
#2630000
0$
00
#2635000
1$
10
b11 /
#2640000
0$
00
#2645000
1$
10
b10 /
#2650000
0$
00
#2655000
1$
10
b1 /
#2660000
0$
00
#2665000
1$
10
b0 /
#2670000
0$
00
#2675000
1$
10
b101 /
1&
12
#2680000
0$
00
#2685000
1$
10
b100 /
0&
b11 C
02
#2690000
0$
00
#2695000
1$
10
b11 /
#2700000
0$
00
#2705000
1$
10
b10 /
#2710000
0$
00
#2715000
1$
10
b1 /
#2720000
0$
00
#2725000
1$
10
b0 /
#2730000
0$
00
#2735000
1$
10
b101 /
1&
12
#2740000
0$
00
#2745000
1$
10
b100 /
0&
b10 C
02
#2750000
0$
00
#2755000
1$
10
b11 /
#2760000
0$
00
#2765000
1$
10
b10 /
#2770000
0$
00
#2775000
1$
10
b1 /
#2780000
0$
00
#2785000
1$
10
b0 /
#2790000
0$
00
#2795000
1$
10
b101 /
1&
12
#2800000
0$
00
#2805000
1$
10
b100 /
0&
b1 C
02
#2810000
0$
00
#2815000
1$
10
b11 /
#2820000
0$
00
#2825000
1$
10
b10 /
#2830000
0$
00
#2835000
1$
10
b1 /
#2840000
0$
00
#2845000
1$
10
b0 /
#2850000
0$
00
#2855000
1$
10
b101 /
1&
12
#2860000
0$
00
#2865000
1$
10
b100 /
0&
b0 C
02
#2870000
0$
00
#2875000
1$
10
b11 /
#2880000
0$
00
#2885000
1$
10
b10 /
#2890000
0$
00
#2895000
1$
10
b1 /
#2900000
0$
00
#2905000
1$
10
b0 /
#2910000
0$
00
#2915000
1$
10
b101 /
1&
12
#2920000
0$
00
#2925000
1$
10
b100 /
0&
b1111 C
b110 B
b100 ?
02
#2930000
0$
00
#2935000
1$
10
b11 /
#2940000
0$
00
#2945000
1$
10
b10 /
#2950000
0$
00
#2955000
1$
10
b1 /
#2960000
0$
00
#2965000
1$
10
b0 /
#2970000
0$
00
#2975000
1$
10
b101 /
1&
12
#2980000
0$
00
#2985000
1$
10
b100 /
0&
b1110 C
02
#2990000
0$
00
#2995000
1$
10
b11 /
#3000000
0$
00
#3005000
1$
10
b10 /
#3010000
0$
00
#3015000
1$
10
b1 /
#3020000
0$
00
#3025000
1$
10
b0 /
#3030000
0$
00
#3035000
1$
10
b101 /
1&
12
#3040000
0$
00
#3045000
1$
10
b100 /
0&
b1101 C
02
#3050000
0$
00
#3055000
1$
10
b11 /
#3060000
0$
00
#3065000
1$
10
b10 /
#3070000
0$
00
#3075000
1$
10
b1 /
#3080000
0$
00
#3085000
1$
10
b0 /
#3090000
0$
00
#3095000
1$
10
b101 /
1&
12
#3100000
0$
00
#3105000
1$
10
b100 /
0&
b1100 C
02
#3110000
0$
00
#3115000
1$
10
b11 /
#3120000
0$
00
#3125000
1$
10
b10 /
#3130000
0$
00
#3135000
1$
10
b1 /
#3140000
0$
00
#3145000
1$
10
b0 /
#3150000
0$
00
#3155000
1$
10
b101 /
1&
12
#3160000
0$
00
#3165000
1$
10
b100 /
0&
b1011 C
02
#3170000
0$
00
#3175000
1$
10
b11 /
#3180000
0$
00
#3185000
1$
10
b10 /
#3190000
0$
00
#3195000
1$
10
b1 /
#3200000
0$
00
#3205000
1$
10
b0 /
#3210000
0$
00
#3215000
1$
10
b101 /
1&
12
#3220000
0$
00
#3225000
1$
10
b100 /
0&
b1010 C
02
#3230000
0$
00
#3235000
1$
10
b11 /
#3240000
0$
00
#3245000
1$
10
b10 /
#3250000
0$
00
#3255000
1$
10
b1 /
#3260000
0$
00
#3265000
1$
10
b0 /
#3270000
0$
00
#3275000
1$
10
b101 /
1&
12
#3280000
0$
00
#3285000
1$
10
b100 /
0&
b1001 C
02
#3290000
0$
00
#3295000
1$
10
b11 /
#3300000
0$
00
#3305000
1$
10
b10 /
#3310000
0$
00
#3315000
1$
10
b1 /
#3320000
0$
00
#3325000
1$
10
b0 /
#3330000
0$
00
#3335000
1$
10
b101 /
1&
12
#3340000
0$
00
#3345000
1$
10
b100 /
0&
b1000 C
02
#3350000
0$
00
#3355000
1$
10
b11 /
#3360000
0$
00
#3365000
1$
10
b10 /
#3370000
0$
00
#3375000
1$
10
b1 /
#3380000
0$
00
#3385000
1$
10
b0 /
#3390000
0$
00
#3395000
1$
10
b101 /
1&
12
#3400000
0$
00
#3405000
1$
10
b100 /
0&
b111 C
02
#3410000
0$
00
#3415000
1$
10
b11 /
#3420000
0$
00
#3425000
1$
10
b10 /
#3430000
0$
00
#3435000
1$
10
b1 /
#3440000
0$
00
#3445000
1$
10
b0 /
#3450000
0$
00
#3455000
1$
10
b101 /
1&
12
#3460000
0$
00
#3465000
1$
10
b100 /
0&
b110 C
02
#3470000
0$
00
#3475000
1$
10
b11 /
#3480000
0$
00
#3485000
1$
10
b10 /
#3490000
0$
00
#3495000
1$
10
b1 /
#3500000
0$
00
#3505000
1$
10
b0 /
#3510000
0$
00
#3515000
1$
10
b101 /
1&
12
#3520000
0$
00
#3525000
1$
10
b100 /
0&
b101 C
02
#3530000
0$
00
#3535000
1$
10
b11 /
#3540000
0$
00
#3545000
1$
10
b10 /
#3550000
0$
00
#3555000
1$
10
b1 /
#3560000
0$
00
#3565000
1$
10
b0 /
#3570000
0$
00
#3575000
1$
10
b101 /
1&
12
#3580000
0$
00
#3585000
1$
10
b100 /
0&
b100 C
02
#3590000
0$
00
#3595000
1$
10
b11 /
#3600000
0$
00
#3605000
1$
10
b10 /
#3610000
0$
00
#3615000
1$
10
b1 /
#3620000
0$
00
#3625000
1$
10
b0 /
#3630000
0$
00
#3635000
1$
10
b101 /
1&
12
#3640000
0$
00
#3645000
1$
10
b100 /
0&
b11 C
02
#3650000
0$
00
#3655000
1$
10
b11 /
#3660000
0$
00
#3665000
1$
10
b10 /
#3670000
0$
00
#3675000
1$
10
b1 /
#3680000
0$
00
#3685000
1$
10
b0 /
#3690000
0$
00
#3695000
1$
10
b101 /
1&
12
#3700000
0$
00
#3705000
1$
10
b100 /
0&
b10 C
02
#3710000
0$
00
#3715000
1$
10
b11 /
#3720000
0$
00
#3725000
1$
10
b10 /
#3730000
0$
00
#3735000
1$
10
b1 /
#3740000
0$
00
#3745000
1$
10
b0 /
#3750000
0$
00
#3755000
1$
10
b101 /
1&
12
#3760000
0$
00
#3765000
1$
10
b100 /
0&
b1 C
02
#3770000
0$
00
#3775000
1$
10
b11 /
#3780000
0$
00
#3785000
1$
10
b10 /
#3790000
0$
00
#3795000
1$
10
b1 /
#3800000
0$
00
#3805000
1$
10
b0 /
#3810000
0$
00
#3815000
1$
10
b101 /
1&
12
#3820000
0$
00
#3825000
1$
10
b100 /
0&
b0 C
02
#3830000
0$
00
#3835000
1$
10
b11 /
#3840000
0$
00
#3845000
1$
10
b10 /
#3850000
0$
00
#3855000
1$
10
b1 /
#3860000
0$
00
#3865000
1$
10
b0 /
#3870000
0$
00
#3875000
1$
10
b101 /
1&
12
#3880000
0$
00
#3885000
1$
10
b100 /
0&
b1111 C
b101 B
0@
b10 ?
02
#3890000
0$
00
#3895000
1$
10
b11 /
0=
0#
#3900000
0$
00
#3905000
1$
10
b10 /
#3910000
0$
00
#3915000
1$
10
b1 /
#3920000
0$
00
#3925000
1$
10
b0 /
#3930000
0$
00
#3935000
1$
10
b101 /
1&
12
#3940000
0$
00
#3945000
1$
10
b100 /
0&
b1110 C
02
#3950000
0$
00
#3955000
1$
10
b11 /
#3960000
0$
00
#3965000
1$
10
b10 /
#3970000
0$
00
#3975000
1$
10
b1 /
#3980000
0$
00
#3985000
1$
10
b0 /
#3990000
0$
00
#3995000
1$
10
b101 /
1&
12
#4000000
0$
00
#4005000
1$
10
b100 /
0&
b1101 C
02
#4010000
0$
00
#4015000
1$
10
b11 /
#4020000
0$
00
#4025000
1$
10
b10 /
#4030000
0$
00
#4035000
1$
10
b1 /
#4040000
0$
00
#4045000
1$
10
b0 /
#4050000
0$
00
#4055000
1$
10
b101 /
1&
12
#4060000
0$
00
#4065000
1$
10
b100 /
0&
b1100 C
02
#4070000
0$
00
#4075000
1$
10
b11 /
#4080000
0$
00
#4085000
1$
10
b10 /
#4090000
0$
00
#4095000
1$
10
b1 /
#4100000
0$
00
#4105000
1$
10
b0 /
#4110000
0$
00
#4115000
1$
10
b101 /
1&
12
#4120000
0$
00
#4125000
1$
10
b100 /
0&
b1011 C
02
#4130000
0$
00
#4135000
1$
10
b11 /
#4140000
0$
00
#4145000
1$
10
b10 /
#4150000
0$
00
#4155000
1$
10
b1 /
#4160000
0$
00
#4165000
1$
10
b0 /
#4170000
0$
00
#4175000
1$
10
b101 /
1&
12
#4180000
0$
00
#4185000
1$
10
b100 /
0&
b1010 C
02
#4190000
0$
00
#4195000
1$
10
b11 /
#4200000
0$
00
#4205000
1$
10
b10 /
#4210000
0$
00
#4215000
1$
10
b1 /
#4220000
0$
00
#4225000
1$
10
b0 /
#4230000
0$
00
#4235000
1$
10
b101 /
1&
12
#4240000
0$
00
#4245000
1$
10
b100 /
0&
b1001 C
02
#4250000
0$
00
#4255000
1$
10
b11 /
#4260000
0$
00
#4265000
1$
10
b10 /
#4270000
0$
00
#4275000
1$
10
b1 /
#4280000
0$
00
#4285000
1$
10
b0 /
#4290000
0$
00
#4295000
1$
10
b101 /
1&
12
#4300000
0$
00
#4305000
1$
10
b100 /
0&
b1000 C
02
#4310000
0$
00
#4315000
1$
10
b11 /
#4320000
0$
00
#4325000
1$
10
b10 /
#4330000
0$
00
#4335000
1$
10
b1 /
#4340000
0$
00
#4345000
1$
10
b0 /
#4350000
0$
00
#4355000
1$
10
b101 /
1&
12
#4360000
0$
00
#4365000
1$
10
b100 /
0&
b111 C
02
#4370000
0$
00
#4375000
1$
10
b11 /
#4380000
0$
00
#4385000
1$
10
b10 /
#4390000
0$
00
#4395000
1$
10
b1 /
#4400000
0$
00
#4405000
1$
10
b0 /
#4410000
0$
00
#4415000
1$
10
b101 /
1&
12
#4420000
0$
00
#4425000
1$
10
b100 /
0&
b110 C
02
#4430000
0$
00
#4435000
1$
10
b11 /
#4440000
0$
00
#4445000
1$
10
b10 /
#4450000
0$
00
#4455000
1$
10
b1 /
#4460000
0$
00
#4465000
1$
10
b0 /
#4470000
0$
00
#4475000
1$
10
b101 /
1&
12
#4480000
0$
00
#4485000
1$
10
b100 /
0&
b101 C
02
#4490000
0$
00
#4495000
1$
10
b11 /
#4500000
0$
00
#4505000
1$
10
b10 /
#4510000
0$
00
#4515000
1$
10
b1 /
#4520000
0$
00
#4525000
1$
10
b0 /
#4530000
0$
00
#4535000
1$
10
b101 /
1&
12
#4540000
0$
00
#4545000
1$
10
b100 /
0&
b100 C
02
#4550000
0$
00
#4555000
1$
10
b11 /
#4560000
0$
00
#4565000
1$
10
b10 /
#4570000
0$
00
#4575000
1$
10
b1 /
#4580000
0$
00
#4585000
1$
10
b0 /
#4590000
0$
00
#4595000
1$
10
b101 /
1&
12
#4600000
0$
00
#4605000
1$
10
b100 /
0&
b11 C
02
#4610000
0$
00
#4615000
1$
10
b11 /
#4620000
0$
00
#4625000
1$
10
b10 /
#4630000
0$
00
#4635000
1$
10
b1 /
#4640000
0$
00
#4645000
1$
10
b0 /
#4650000
0$
00
#4655000
1$
10
b101 /
1&
12
#4660000
0$
00
#4665000
1$
10
b100 /
0&
b10 C
02
#4670000
0$
00
#4675000
1$
10
b11 /
#4680000
0$
00
#4685000
1$
10
b10 /
#4690000
0$
00
#4695000
1$
10
b1 /
#4700000
0$
00
#4705000
1$
10
b0 /
#4710000
0$
00
#4715000
1$
10
b101 /
1&
12
#4720000
0$
00
#4725000
1$
10
b100 /
0&
b1 C
02
#4730000
0$
00
#4735000
1$
10
b11 /
#4740000
0$
00
#4745000
1$
10
b10 /
#4750000
0$
00
#4755000
1$
10
b1 /
#4760000
0$
00
#4765000
1$
10
b0 /
#4770000
0$
00
#4775000
1$
10
b101 /
1&
12
#4780000
0$
00
#4785000
1$
10
b100 /
0&
b0 C
02
#4790000
0$
00
#4795000
1$
10
b11 /
#4800000
0$
00
#4805000
1$
10
b10 /
#4810000
0$
00
#4815000
1$
10
b1 /
#4820000
0$
00
#4825000
1$
10
b0 /
#4830000
0$
00
#4835000
1$
10
b101 /
1&
12
#4840000
0$
00
#4845000
1$
10
b100 /
0&
b1111 C
b100 B
b1 ?
02
#4850000
0$
00
#4855000
1$
10
b11 /
#4860000
0$
00
#4865000
1$
10
b10 /
#4870000
0$
00
#4875000
1$
10
b1 /
#4880000
0$
00
#4885000
1$
10
b0 /
#4890000
0$
00
#4895000
1$
10
b101 /
1&
12
#4900000
0$
00
#4905000
1$
10
b100 /
0&
b1110 C
02
#4910000
0$
00
#4915000
1$
10
b11 /
#4920000
0$
00
#4925000
1$
10
b10 /
#4930000
0$
00
#4935000
1$
10
b1 /
#4940000
0$
00
#4945000
1$
10
b0 /
#4950000
0$
00
#4955000
1$
10
b101 /
1&
12
#4960000
0$
00
#4965000
1$
10
b100 /
0&
b1101 C
02
#4970000
0$
00
#4975000
1$
10
b11 /
#4980000
0$
00
#4985000
1$
10
b10 /
#4990000
0$
00
#4995000
1$
10
b1 /
#5000000
0$
00
#5005000
1$
10
b0 /
#5010000
0$
00
#5015000
1$
10
b101 /
1&
12
#5020000
0$
00
#5025000
1$
10
b100 /
0&
b1100 C
02
#5030000
0$
00
#5035000
1$
10
b11 /
#5040000
0$
00
#5045000
1$
10
b10 /
#5050000
0$
00
#5055000
1$
10
b1 /
#5060000
0$
00
#5065000
1$
10
b0 /
#5070000
0$
00
#5075000
1$
10
b101 /
1&
12
#5080000
0$
00
#5085000
1$
10
b100 /
0&
b1011 C
02
#5090000
0$
00
#5095000
1$
10
b11 /
#5100000
0$
00
#5105000
1$
10
b10 /
#5110000
0$
00
#5115000
1$
10
b1 /
#5120000
0$
00
#5125000
1$
10
b0 /
#5130000
0$
00
#5135000
1$
10
b101 /
1&
12
#5140000
0$
00
#5145000
1$
10
b100 /
0&
b1010 C
02
#5150000
0$
00
#5155000
1$
10
b11 /
#5160000
0$
00
#5165000
1$
10
b10 /
#5170000
0$
00
#5175000
1$
10
b1 /
#5180000
0$
00
#5185000
1$
10
b0 /
#5190000
0$
00
